bebÉ,crianÇas,beleza,cafÉ,cconsultadoria,criativo,design,educaÇÃo,evento,moda,fitness,alimentaÇÃo,geral,ambiente,saÚde,lar,marketing,imobiliÁria,curto,loja,tecnologia,viagem
adorável,adorável,acessível,caloroso,abundante,abstrato,abalizado,acadêmico,acessível,acessível,andante,acessível,aberto,alternativa,adorável,adorável,absoluto,acessível,-aria,acessível,acessível,acessível
afetivo,afetivo,alternativa,charmoso,aceito,adverso,acentuado,acessível,alternativa,adorável,ativo,adorável,afinado,anacrônico,afetivo,agradável,acelerado,agregado,-ato,adorável,adepto,adorável
alegre,alegre,antenado,chique,acessível,anacrônico,acessível,adaptado,autônomo,afamado,cadenciado,afrodisíaco,afins,ancestral,amável,aprimorado,acessível,agrupado,-cia,agradável,afins,ajustado
amável,amável,artístico,galante,adaptado,antagônico,aero,adjunto,avulso,alternativa,contente,agridoce,alegre,antagônico,amigável,caprichoso,adaptado,alcançável,-ear,antigo,alternativa,alternativa
amigável,amigável,atraente,garboso,aforturnado,anteposto,ajustado,aguçado,belo,alto,dançante,aguçado,auto,artesanal,amigo,charmoso,adorado,amplitude,-eiro,aprimorado,amigável,ancestral
bacana,bacana,atrevido,lisonjeiro,ajustado,ardoroso,alternativa,alegórico,bis,ambíguo,enérgico,alternativa,barato,autêntico,amistoso,chique,adorável,aprimorado,-gia,artesanal,antenado,autêntico
caprichoso,caprichoso,audacioso,típico,alcançável,artesanal,artístico,alternativa,bônus,ameno,energético,apetitoso,catalisado,belo,amoroso,clássico,agradável,apropriado,-ia,autêntico,aplicado,belo
curioso,curioso,autêntico,tradicional,almejado,artístico,audacioso,alusivo,brilhante,antenado,esbelto,aprimorado,categórico,botânico,animado,contemporâneo,alternativa,ascendente,-ias,característico,aprovado,casual
delicado,delicado,bacana,estocado,analítico,autêntico,autêntico,analítico,caridoso,artesanal,extremo,aprovado,categorizado,bucólico,animador,controverso,amigável,assegurado,-logia,casual,armazenado,chique
divertido,divertido,belo,estocado,antecipado,controverso,belo,apartidário,charmoso,artístico,forte,autêntico,cativo,cálido,aperfeiçoado,dilapidado,analítico,autêntico,-ria,charmoso,atual,completo
dorminhoco,dorminhoco,bombástico,divertido,apadrinhado,criativo,caprichoso,aprendizado,chique,atípico,fortificante,balanceado,center,campestre,aprofundado,diversificado,aperfeiçoado,autônomo,-voro,chique,autônomo,contemplativo
educativo,educativo,bonito,encantado,aprofundado,degradê,casual,aprimorado,clássico,atraente,funcional,caprichoso,centralizado,caridoso,apto,diverso,apreciado,chique,bem-,clássico,binário,contemporâneo
elegante,elegante,brilhante,familiar,apropriado,descaracterizado,clássico,aprofundado,descomplicado,audacioso,esportivo,característico,certo,charmoso,arrojado,doméstico,aprimorado,confiável,bio,confiável,bônus,convencional
encantado,encantado,caprichoso,fraternal,aprovado,descaracterístico,contemporâneo,atípico,deslumbrante,autêntico,exercício,caseiro,coletivo,colaborativo,atípico,elegante,apropriado,conjugado,bom-,contemporâneo,bônus,cosmopolita
engraçado,engraçado,charmoso,atraente,apto,desassociado,controverso,autêntico,destaque,autônomo,frequente,casual,coligado,comprometido,atraente,encantado,apurado,construtivo,co-,cotidiano,calculado,demarcado
espontâneo,espontâneo,chique,brilhante,arranjado,desconstruído,criativo,avançado,eclético,bacana,incansável,chique,colimitado,comunitário,audacioso,espetacular,assíduo,contemporâneo,des-,crescente,casual,desbravado
faceiro,faceiro,cintilante,deslumbrante,articulado,destoado,descomplicado,balanceado,elegância,balanceado,malhado,"com carinho",comburente,conjuntivo,autêntico,essencial,atinado,convencional,entre-,criativo,científico,desbravador
familiar,familiar,contemporâneo,esplêndido,autêntico,discrepante,desconstruído,categórico,elegante,belo,musculoso,contemporâneo,comedido,conveniente,bacana,estilizado,audacioso,cosmopolita,exo-,desapegado,composto,descansado
feliz,feliz,criativo,exuberante,avançado,distorcido,deslumbrante,categorizado,encantado,bombástico,vigoroso,cotidiano,comercial,cooperativo,balanceado,estrutural,auspicioso,decorrente,geo-,descomplicado,comutável,descansar
fictício,fictício,delicado,fabuloso,balanceado,divergente,destaque,centralizado,envolvente,caprichoso,,delicioso,compassado,correlato,bendito,excepcional,autêntico,desejável,guarda-,disponível,concatenado,descoberto
fofo,fofo,deslumbrante,radiante,benéfico,dramático,digital,coletivo,espetacular,característico,,destaque,compensatório,dedicado,beneficente,exemplar,autônomo,designado,hemi-,diversificado,conectado,descomplicado
fraternal,fraternal,despojado,acessível,calculado,dramatizado,disponível,compartilhado,esplêndido,casual,,diversificado,completo,desabrochado,benigno,exuberante,avançado,diferenciado,hidro-,diverso,contemporâneo,desconhecido
gracioso,gracioso,diversificado,aprovado,capaz,enigmático,diversificado,complementar,estonteante,chique,,diverso,concernido,descomplicado,bento,fabuloso,balanceado,direcionado,hiper-,"dos sonhos",cumulativo,deslocamento
heróico,heróico,dourado,certeiro,categorizado,entoado,eficaz,completo,eterno,clássico,,doce,condecorado,desenvolvimento,borbulhante,familiar,calculado,disponível,hipno,eficaz,decodificado,despretencioso
infantil,infantil,elegância,concentrado,centralizado,escape,enérgico,comprometido,eventual,contemporâneo,,envolvente,conforme,deslumbrante,brabo,formoso,caprichoso,distinto,hipo-,elegante,desempenhado,destinado
instintivo,instintivo,elegante,confiável,certeiro,experimental,esmaecido,concomitante,excelência,convencional,,espetacular,contra,desmistificado,bravo,genuíno,característico,diversificado,intra,empório,desenvolvido,desvendado
Íntimo,Íntimo,espetacular,conveniente,coerente,expressivo,específico,consonante,excepcional,cosmopolita,,esplêndido,democrático,desvendado,capaz,habitual,casual,diverso,macro,entreposto,desenvolvimento,determinado
inventivo,inventivo,esplêndido,diferenciado,colaborativo,fosco,estilizado,contemporâneo,extra,cotidiano,,excelente,denominado,diferenciado,caprichoso,harmonioso,certeiro,elegante,mega,equilibrado,destaque,diário
jovem,jovem,estonteante,especialista,competente,frenético,estrutural,contínuo,exuberante,deslumbrante,,excepcional,descentralizado,dinâmico,característico,ideal,colaborativo,enxuto,mero,especial,destaque,diferenciado
legal,legal,excelente,específico,complementar,gráfico,excelente,convencional,fabuloso,despojado,,exigente,desimpedidos,disseminado,carismático,iluminado,combinado,escolhido,micro,espetacular,detonado,disponível
lúdico,lúdico,excepcional,idealizado,comprometido,imaginativo,excepcional,coordenado,fantástico,despretencioso,,experimental,desmistificado,diversificado,celebrado,incomum,comparativo,espetacular,mono,excepcional,diferenciado,diversificado
maroto,maroto,experimental,irrecusável,concentrado,Ímpar,experimental,cotidiano,fervente,destaque,,exuberante,disponível,diverso,célebre,incrível,compartilhado,esplêndido,mor,exemplar,digitado,diverso
maternal,maternal,expressivo,particular,conciliado,incomum,expressivo,crescente,festival,eclético,,fabricado,diversificado,"do bem",chique,inigualável,complementar,essencial,morfo,exportação,digital,divertido
matriarcal,matriarcal,exuberante,verdadeiro,conciso,incrível,exuberante,descentralizado,festivo,efervescente,,fabuloso,diverso,durável,coerente,inovador,comunicativo,estável,mui,extra,disponível,divertido
miúdo,miúdo,fabuloso,versátil,concomitante,independente,fabuloso,descomplicado,gigantesco,elegância,,familiar,dual,empírico,compartilhado,interior,condizente,estrutural,neutro,familiar,diversificado,econômico
parental,parental,fantástico,anacrônico,confiável,indescritível,fantástico,desconstruído,glorioso,elegante,,famoso,emergencial,engajado,competente,Íntimo,confiável,excelente,poli,fantástico,diverso,elegante
paternal,paternal,formidável,artesanal,consolidado,inimaginável,fluido,descritivo,grandioso,escândalo,,fantástico,emergente,espetacular,comprometido,magnífico,consolidado,executivo,pré-,fino,divertido,entusiasmado
paterno,paterno,gracioso,autêntico,consultivo,inimitável,fotografado,desejável,ideal,estilizado,,farto,especial,esplêndido,concentrado,majestoso,contemporâneo,exigente,pro-,fixo,documentado,entusiástico
sentimental,sentimental,impressionante,criativo,conveniente,insano,garantido,desenvolto,idealizado,estonteante,,fatiado,espetacular,essencial,conciso,manufaturado,controlado,existente,psico,formidável,eficaz,envolvente
singelo,singelo,independente,experimental,cooperativo,insólito,gradual,desenvolvido,ilustre,eventual,,fenomenal,essencial,etéreo,confiante,memorável,contundente,exterior,re-,formoso,eletrizante,esconderijo
sublime,sublime,indescritível,indescritível,coordenado,inventivo,harmônico,desmistificado,imemorável,excepcional,,folclórico,estrelado,Ético,confiável,minucioso,convencional,extra,semi,genial,eletrônico,escondido
tenro,tenro,inebriante,peculiar,correlato,peculiar,idealizado,desperto,imortal,experimental,,fresco,estrondoso,excepcional,contemplativo,modesto,conveniente,fantástico,sênior,histórico,emulado,especial
,,inventivo,excelência,cotidiano,perspicaz,imaginativo,despretencioso,impactante,extra,,gastronomia,estupendo,exemplar,contemporâneo,modulado,criativo,formal,super,ideal,engenhoso,espetacular
,,irresistível,glorioso,dedicado,radical,impactante,desvendado,impecável,extravagante,,gelado,excelente,exótico,controlado,nobre,definido,formidável,supra,impecável,entendido,espontâneo
,,jovem,grandioso,delimitado,figurado,Ímpar,devotado,impressionante,exuberante,,gostoso,excepcional,experimental,conveniente,notável,derradeiro,funcional,ultra,impressionante,equivalente,estrangeiro
,,legal,ideal,democrático,fragmentado,impecável,didático,inacreditável,fabuloso,,guarnição,exemplar,extravagante,convicto,original,descomplicado,garantido,,improvisado,específico,excelente
,,lindo,ilustre,desacortinar,improvisado,impressionante,diferenciado,indescritível,faceiro,,guloso,exposto,fabuloso,cordial,particular,descontraído,genuíno,,incomum,espetacular,excepcional
,,luminoso,imemorável,descomplicado,paradoxal,inédito,difundido,inédito,faiscante,,gustativo,expresso,fantástico,corriqueiro,rústico,descritivo,habitante,,incrível,essencial,expedição
,,magnífico,inacreditável,descritivo,encantado,inesquecível,dilapidado,infalível,fantástico,,impecável,extensivo,favorável,cortês,sensacional,desenvolto,ideal,,independente,eventual,experiente
,,majestoso,inédito,descrito,lúdico,inovador,direcionado,infantil,genuíno,,impressionante,extravagante,fenomenal,cotidiano,singular,desenvolvido,idealizado,,inédito,exato,fenomenal
,,maravilhoso,memorável,desempenhado,brilhante,interessante,disponível,inovador,gracioso,,incomum,fácil,fértil,curioso,sublime,despretencioso,impecável,,informal,excepcional,folclórico
,,mirabolante,monumental,desenlace,cintilante,interior,disseminado,inusitado,imaginativo,,incrível,facultativo,florescente,decente,utilitário,determinado,imutável,,inovador,experimental,forasteiro
,,moderno,singular,desenvoltura,deslumbrante,intuitivo,diversificado,magnífico,imersivo,,indescritível,fantástico,florestal,deliberado,versátil,diferenciado,insubstituível,,inusitado,fenomenal,formidável
,,ousado,sublime,desenvolvimento,esplêndido,inusitado,diverso,maior,impactante,,insaciável,fatual,florido,delicado,vintage,disponível,longevo,,legal,flexível,garantido
,,radiante,eclético,desvendado,exuberante,inventivo,docente,majestoso,impecável,,internacional,favorito,fluido,demasiado,,distinto,luxuoso,,livre,funcional,genuíno
,,radical,elegante,diferenciado,fabuloso,irado,educativo,maravilhoso,impressionante,,irresistível,feito,fluvial,descendente,,eficaz,magnífico,,majestoso,genial,hereditário
,,sensacional,estilizado,difundido,radiante,material,eletivo,marcante,improvisado,,itinerante,férreo,fraterno,descomplicado,,eficiente,majestoso,,maneiro,genioso,hospedeiro
,,singular,legal,diligente,chique,modelado,empenhado,memorável,inédito,,legítimo,final,fresco,descontraído,,engenhoso,móvel,,manufaturado,impecável,hospitaleiro
,,sublime,ousado,dinâmico,tradicional,moderno,empírico,metropolitano,inusitado,,leve,firme,frugal,desejável,,entusiástico,nobre,,mercantil,importante,idealizado
,,versátil,retrô,direcionado,acessível,modulado,encorajado,mirabolante,irado,,local,flagrante,frutífero,desenvolto,,envolvente,notável,,moderno,independente,impecável
,,,vintage,discernível,alcançável,moldado,engajado,monumental,irresistível,,louvável,formal,garantido,deslumbrante,,equilibrado,notório,,modesto,inédito,improvisado
,,,energético,diverso,analítico,multimídia,engenhoso,ornamental,jeitoso,,macio,fortuito,genuíno,desperto,,específico,original,,necessário,info,indescritível
,,,forte,eficaz,complementar,perspicaz,entusiástico,ostensivo,jovem,,maravilhoso,garrido,gerador,despojado,,espetacular,particular,,notável,inovador,indomável
,,,fortificante,enérgico,consolidado,rústico,esclarecido,precioso,jovial,,marcante,genuíno,gigantesco,despretencioso,,esplêndido,precioso,,ocasional,inusitado,inesquecível
,,,afrodisíaco,entusiástico,descomplicado,tradicional,esmerado,seguro,legal,,minucioso,geral,global,destaque,,essencial,principal,,original,legítimo,inigualável
,,,apetitoso,equilibrado,diferenciado,uniforme,especial,sensacional,legítimo,,moderno,harmônico,glorioso,desvendado,,estendido,relevante,,ousado,liberal,inovador
,,,delicioso,equivalente,específico,verdadeiro,específico,singular,leve,,modesto,harmonioso,grandioso,determinado,,estreito,seleto,,palpável,lógico,intemerato
,,,doce,especialista,flexível,versátil,essencial,sublime,luminoso,,nativo,hilário,harmonioso,devoto,,estrutural,sensacional,,panorâmico,lúdico,intenso
,,,gostoso,específico,impecável,visível,estelar,típico,maneiro,,natural,homogêneo,híbrido,discreto,,excelente,significativo,,peculiar,manual,internacional
,,,irresistível,essencial,interessante,visual,estrutural,tradicional,maravilhoso,,nutritivo,honesto,honorável,distinto,,excepcional,tenro,,retrô,máximo,inusitado
,,,saboroso,estável,minucioso,,estudioso,,marcante,,orgânico,honorável,humanitário,diversificado,,exemplar,tradicional,,rústico,melhor,irresistível
,,,espetacular,Ético,verdadeiro,,etário,,material,,originário,honrado,idealizado,diverso,,experiente,verdadeiro,,sensacional,móbil,itinerante
,,,essencial,excepcional,versátil,,excelente,,modelado,,peculiar,honroso,imaculado,divertido,,extensivo,versátil,,significativo,modelado,legítimo
,,,excelente,executivo,visual,,excepcional,,natural,,saboroso,horizontal,imersivo,dócil,,extremo,vindouro,,singular,moderno,liberal
,,,excepcional,experiente,descritivo,,experimental,,notável,,saudável,humorístico,imparcial,dotado,,famoso,,,típico,modulado,local
,,,exemplar,extensivo,empírico,,explicado,,ousado,,seleto,idealista,impecável,eficiente,,fantástico,,,total,multimídia,magnífico
,,,favorito,extra,imersivo,,extensivo,,peculiar,,sensacional,idolatrado,importante,elegante,,favorável,,,tradicional,notável,maravilhoso
,,,sensacional,falado,intelectual,,extra,,retrô,,sublime,idomático,impressionante,emocional,,fenomenal,,,universal,ocasional,marcante
,,,valioso,fantástico,inteligível,,facultativo,,sensacional,,tradicional,idôneo,improvisado,emotivo,,fluido,,,valioso,opcional,memorável
,,,leve,fenomenal,literal,,florescente,,significativo,,trivial,Ígneo,inabalável,encantado,,funcional,,,verdadeiro,operante,minucioso
,,,natural,flexível,livre,,fluente,,singelo,,versátil,ilimitado,inacreditável,engajado,,garantido,,,versátil,original,moderno
,,,animador,funcional,destaque,,focado,,tangível,,,imemorial,incólume,entusiasmado,,genial,,,vintage,principal,mundial
,,,cotidiano,garantido,fervente,,garantido,,versátil,,,iminente,indescritível,entusiástico,,genuíno,,,,remoto,nacional
,,,equilibrado,genial,festival,,genial,,vintage,,,imperativo,indestrutível,envolvente,,ideal,,,,sensacional,navegável
,,,notável,genuíno,glorioso,,horizontal,,,,,imponente,indomável,equilibrado,,idealizado,,,,significativo,nômade
,,,sensorial,geral,grandioso,,ideal,,,,,imprescindível,inexplicável,esfuziante,,imediato,,,,síncrono,paradisíaco
,,,habitual,gradual,imemorável,,idiomático,,,,,inabalável,interessante,esotérico,,imersivo,,,,sistemático,particular
,,,agradável,hábil,impactante,,ilimitado,,,,,incandescente,interminável,espantoso,,impactante,,,,tecno,passageiro
,,,característico,ideal,impressionante,,imaginativo,,,,,incauto,inusitado,especial,,impecável,,,,típico,patriota
,,,escolhido,idealizado,inacreditável,,imersivo,,,,,indene,lendário,especialista,,implacável,,,,total,peculiar
,,,majestoso,imersivo,inédito,,impecável,,,,,indeterminado,leve,esperto,,impressionante,,,,tradicional,perspicaz
,,,contemporâneo,imparcial,inovador,,imprescindível,,,,,indicador,mágico,espetacular,,impulsionado,,,,trivial,radical
,,,moderno,impecável,metropolitano,,incessante,,,,,indicativo,magnânimo,espiritual,,inacreditável,,,,universal,recôndito
,,,maravilhoso,importante,mirabolante,,independente,,,,,inexorável,magnífico,espirituoso,,indireto,,,,versátil,rudimentar
,,,rústico,impressionante,sublime,,indutivo,,,,,integral,memorável,esplêndido,,inesquecível,,,,virtual,rústico
,,,tranquilo,incessante,audacioso,,inesquecível,,,,,Íntegro,monumental,espontâneo,,ininterrupto,,,,,selvagem
,,,,individual,clássico,,inigualável,,,,,intercadente,multilateral,essencial,,inovador,,,,,sensacional
,,,,iniciativa,estonteante,,inovador,,,,,interino,múltiplo,eufórico,,instantâneo,,,,,serrano
,,,,intensivo,jovem,,insaciável,,,,,intermediário,nativo,exaltado,,instintivo,,,,,significativo
,,,,interativo,legal,,instrumental,,,,,intocável,natural,excelente,,intensivo,,,,,singular
,,,,interessante,luminoso,,intelectual,,,,,inverso,nômade,excêntrico,,intenso,,,,,terrestre
,,,,intrasferível,maneiro,,inteligente,,,,,irrefutável,orgânico,excepcional,,inusitado,,,,,típico
,,,,irrecusável,ousado,,inteligível,,,,,irrestrito,originário,exemplar,,invariável,,,,,tradicional
,,,,legítimo,enérgico,,intensivo,,,,,justo,particular,exigente,,invicto,,,,,tranquilo
,,,,linear,irresistível,,interativo,,,,,latente,peculiar,exótico,,ligeiro,,,,,vasto
,,,,maduro,coletivo,,interessante,,,,,luzidio,radiante,experiente,,magnífico,,,,,versátil
,,,,magistral,dual,,interminável,,,,,magnânimo,raro,experimental,,marcante,,,,,visual
,,,,majoritário,excepcional,,lacônico,,,,,manifesto,rudimentar,extravagante,,mensurável,,,,,
,,,,melhorado,exposto,,laico,,,,,mavioso,rústico,fabuloso,,meticuloso,,,,,
,,,,memorável,fantástico,,legítimo,,,,,máximo,selvagem,falante,,minucioso,,,,,
,,,,meticuloso,genuíno,,literal,,,,,melhor,singular,familiar,,moderno,,,,,
,,,,metódico,indeterminado,,livre,,,,,modal,sublime,fantástico,,momentâneo,,,,,
,,,,metodológico,real,,magno,,,,,mútuo,tangível,favorável,,multimídia,,,,,
,,,,militante,sensacional,,marcante,,,,,necessário,típico,feliz,,notável,,,,,
,,,,minucioso,contemplativo,,máximo,,,,,novo,universal,fenomenal,,ocasional,,,,,
,,,,moderno,emocional,,metódico,,,,,objetivo,Útil,feroz,,opcional,,,,,
,,,,multilateral,equilibrado,,metodológico,,,,,obrigatório,versátil,fervoroso,,original,,,,,
,,,,múltiplo,esfuziante,,múltiplo,,,,,ocasional,vivo,fiel,,ousado,,,,,
,,,,negociado,formidável,,necessário,,,,,ocular,,formidável,,panorâmico,,,,,
,,,,negociável,indomável,,obstinado,,,,,oculto,,fortalecido,,perspicaz,,,,,
,,,,notável,inebriante,,principal,,,,,oficial,,fraternal,,qualitativo,,,,,
,,,,notório,inexplicável,,qualificativo,,,,,opcional,,fraterno,,rápido,,,,,
,,,,particular,intrépido,,reforçado,,,,,oportuno,,funcional,,real,,,,,
,,,,perspicaz,intuitivo,,simultâneo,,,,,optativo,,generoso,,relevante,,,,,
,,,,principal,liberal,,sistemático,,,,,orgulhoso,,gentil,,responsável,,,,,
,,,,receptivo,magnífico,,tático,,,,,original,,gracioso,,sensacional,,,,,
,,,,resolvido,notável,,teorético,,,,,parcial,,hábil,,significativo,,,,,
,,,,responsável,notório,,teórico,,,,,potente,,habilidoso,,sistemático,,,,,
,,,,singular,sensorial,,total,,,,,principal,,habitual,,supremo,,,,,
,,,,sistemático,aprimorado,,tradicional,,,,,racional,,heterogêneo,,tático,,,,,
,,,,total,característico,,universal,,,,,real,,híbrido,,típico,,,,,
,,,,transparente,despretencioso,,valioso,,,,,rebuscado,,holístico,,total,,,,,
,,,,universal,envolvente,,versátil,,,,,receptivo,,humanitário,,tradicional,,,,,
,,,,usual,implacável,,,,,,,referente,,humano,,triunfal,,,,,
,,,,valioso,momentâneo,,,,,,,régio,,humilde,,veloz,,,,,
,,,,verdadeiro,cosmopolita,,,,,,,relevante,,idealizado,,verdadeiro,,,,,
,,,,versátil,contemporâneo,,,,,,,respeitável,,imaculado,,versátil,,,,,
,,,,virtuoso,genial,,,,,,,responsável,,imune,,,,,,,
,,,,,itinerante,,,,,,,restrito,,indolor,,,,,,,
,,,,,local,,,,,,,rico,,indomável,,,,,,,
,,,,,maravilhoso,,,,,,,romântico,,inebriante,,,,,,,
,,,,,marcante,,,,,,,rotativo,,inédito,,,,,,,
,,,,,rústico,,,,,,,satisfatório,,inesquecível,,,,,,,
,,,,,,,,,,,,seleto,,inexplicável,,,,,,,
,,,,,,,,,,,,sensacional,,instintivo,,,,,,,
,,,,,,,,,,,,simultâneo,,intelectual,,,,,,,
,,,,,,,,,,,,supremo,,inteligente,,,,,,,
,,,,,,,,,,,,total,,interessante,,,,,,,
,,,,,,,,,,,,triunfal,,Íntimo,,,,,,,
,,,,,,,,,,,,Último,,intrépido,,,,,,,
,,,,,,,,,,,,uniforme,,intrínseco,,,,,,,
,,,,,,,,,,,,unitário,,intuitivo,,,,,,,
,,,,,,,,,,,,universal,,invencível,,,,,,,
,,,,,,,,,,,,usual,,invicto,,,,,,,
,,,,,,,,,,,,válido,,irrecusável,,,,,,,
,,,,,,,,,,,,valioso,,irresistível,,,,,,,
,,,,,,,,,,,,valoroso,,leal,,,,,,,
,,,,,,,,,,,,vertical,,liberal,,,,,,,
,,,,,,,,,,,,veterano,,libertário,,,,,,,
,,,,,,,,,,,,viável,,louvável,,,,,,,
,,,,,,,,,,,,,,lúcido,,,,,,,
,,,,,,,,,,,,,,mágico,,,,,,,
,,,,,,,,,,,,,,magnífico,,,,,,,
,,,,,,,,,,,,,,mania,,,,,,,
,,,,,,,,,,,,,,manso,,,,,,,
,,,,,,,,,,,,,,maravilhoso,,,,,,,
,,,,,,,,,,,,,,maroto,,,,,,,
,,,,,,,,,,,,,,matinal,,,,,,,
,,,,,,,,,,,,,,matreiro,,,,,,,
,,,,,,,,,,,,,,meigo,,,,,,,
,,,,,,,,,,,,,,melódico,,,,,,,
,,,,,,,,,,,,,,metafísico,,,,,,,
,,,,,,,,,,,,,,meticuloso,,,,,,,
,,,,,,,,,,,,,,milagroso,,,,,,,
,,,,,,,,,,,,,,mimoso,,,,,,,
,,,,,,,,,,,,,,miraculoso,,,,,,,
,,,,,,,,,,,,,,místico,,,,,,,
,,,,,,,,,,,,,,mítico,,,,,,,
,,,,,,,,,,,,,,modesto,,,,,,,
,,,,,,,,,,,,,,motivado,,,,,,,
,,,,,,,,,,,,,,mutável,,,,,,,
,,,,,,,,,,,,,,natural,,,,,,,
,,,,,,,,,,,,,,nítido,,,,,,,
,,,,,,,,,,,,,,notável,,,,,,,
,,,,,,,,,,,,,,notório,,,,,,,
,,,,,,,,,,,,,,Óbvio,,,,,,,
,,,,,,,,,,,,,,original,,,,,,,
,,,,,,,,,,,,,,original,,,,,,,
,,,,,,,,,,,,,,otimista,,,,,,,
,,,,,,,,,,,,,,Ótimo,,,,,,,
,,,,,,,,,,,,,,paciente,,,,,,,
,,,,,,,,,,,,,,pacífico,,,,,,,
,,,,,,,,,,,,,,particular,,,,,,,
,,,,,,,,,,,,,,peculiar,,,,,,,
,,,,,,,,,,,,,,pensativo,,,,,,,
,,,,,,,,,,,,,,perspicaz,,,,,,,
,,,,,,,,,,,,,,radiante,,,,,,,
,,,,,,,,,,,,,,sadio,,,,,,,
,,,,,,,,,,,,,,sagaz,,,,,,,
,,,,,,,,,,,,,,sapiente,,,,,,,
,,,,,,,,,,,,,,saudável,,,,,,,
,,,,,,,,,,,,,,seleto,,,,,,,
,,,,,,,,,,,,,,sensacional,,,,,,,
,,,,,,,,,,,,,,sensível,,,,,,,
,,,,,,,,,,,,,,sensorial,,,,,,,
,,,,,,,,,,,,,,sensual,,,,,,,
,,,,,,,,,,,,,,sentimental,,,,,,,
,,,,,,,,,,,,,,significativo,,,,,,,
,,,,,,,,,,,,,,sublime,,,,,,,
,,,,,,,,,,,,,,talentoso,,,,,,,
,,,,,,,,,,,,,,terapêutico,,,,,,,
,,,,,,,,,,,,,,tranquilo,,,,,,,
,,,,,,,,,,,,,,transparente,,,,,,,
,,,,,,,,,,,,,,valente,,,,,,,
,,,,,,,,,,,,,,verdadeiro,,,,,,,
,,,,,,,,,,,,,,versátil,,,,,,,
,,,,,,,,,,,,,,virtuoso,,,,,,,
